[
  {
    "_id": 10,
    "categoryType": "Movie",
    "amountSpent": 10.00
  },
  {
    "_id": 12,
    "categoryType": "Food",
    "amountSpent": 12.00
  },
  {
    "_id": 20,
    "categoryType": "OnlineShopping",
     "amountSpent": 20.00
  },
  {
    "_id": 22,
    "categoryType": "Groceries",
    "amountSpent": 22.00
  }
]

